Place,Sex,Equipment,Division,WeightClassKg,BodyweightKg,Name,Best3SquatKg,Squat4Kg,Best3BenchKg,Bench4Kg,Best3DeadliftKg,Deadlift4Kg,TotalKg,BirthDate,Event
1,F,Wraps,Amateur Teen 16-17,52,51.75,Nora Fields,95.25,,47.63,,102.06,108.86,244.94,2006-10-27,SBD
1,F,Wraps,Amateur Juniors 20-23,90,83.19,Brianna Shay,151.95,,68.04,,154.22,158.76,374.21,2000-04-21,SBD
1,F,Wraps,Amateur Juniors 20-23,100,94.39,Izabella Aldi,111.13,113.4,52.16,,124.74,129.27,288.03,1998-11-25,SBD
1,F,Wraps,Amateur Open,67.5,66.86,Madison McCormick,145.15,,68.04,,156.49,161.03,369.68,1998-08-19,SBD
1,F,Wraps,Amateur Open,75,73.35,Giovanna Sweeney,111.13,,61.23,,122.47,,294.84,2001-09-08,SBD
1,F,Wraps,Amateur Submasters 33-39,67.5,66.27,Dana Griffin,58.97,,52.16,,102.06,,213.19,1988-09-23,SBD
1,F,Wraps,Amateur Submasters 33-39,90,85.18,Gabrielle Benner,140.61,,78.24,,156.49,161.03,375.35,1985-10-03,SBD
1,F,Wraps,Amateur Masters 40-44,90,89.04,Lisa Baker #3,95.25,99.79,77.11,,90.72,99.79,263.08,1980-12-31,SBD
1,F,Wraps,Amateur Masters 45-49,56,55.66,Catarina Aldi,102.06,,61.23,,120.2,,283.5,1976-01-05,SBD
1,F,Wraps,Amateur Masters 50-54,67.5,66.59,Lori Snook,74.84,,40.82,,117.93,,233.6,1967-11-21,SBD
1,F,Wraps,Amateur Masters 55-59,60,59.42,Lynn Kreider,61.23,,49.9,,90.72,95.25,201.85,1963-04-18,SBD
1,F,Wraps,Amateur Masters 65-69,90,89.9,Shirley Lynn,38.56,,43.09,,79.38,,161.03,1954-09-26,SBD
1,F,Unlimited,Amateur Open,75,74.21,Krissy Camisa,195.04,,129.27,,174.63,,498.95,1985-07-18,SBD
1,F,Wraps,Pro Open,60,59.06,Leigh Kermizian,124.74,,79.38,,147.42,,351.53,1984-09-24,SBD
1,F,Wraps,Pro Open,67.5,66.86,Madison McCormick,145.15,,68.04,,156.49,161.03,369.68,1998-08-19,SBD
1,F,Wraps,Pro Submasters 33-39,60,59.06,Leigh Kermizian,124.74,,79.38,,147.42,,351.53,1984-09-24,SBD
1,F,Unlimited,Pro Open,56,54.79,Nicole Mason #1,213.19,,117.93,,181.44,,512.56,1987-08-09,SBD
1,F,Unlimited,Pro Open,67.5,66,Seta Sevulyan,206.38,,115.67,,190.51,,512.56,1981-02-10,SBD
1,F,Unlimited,Pro Open,82.5,81.24,Caitlyn Hirt,226.8,,142.88,,183.7,,553.38,1998-08-02,SBD
1,F,Unlimited,Pro Masters 55-59,67.5,66.18,Denise Marais,190.51,,158.76,,156.49,,505.76,1963-11-23,SBD
1,F,Wraps,Amateur Masters 70-74,52,51.39,Vivian Read,70.31,,,,122.47,,192.78,1952-08-24,SD
1,M,Wraps,Amateur Teen 14-15,100,100,Mason Schulenburg,170.1,,97.52,,185.97,,453.59,2007-01-29,SBD
1,M,Wraps,Amateur Teen 16-17,82.5,81.67,Theron Feeser,181.44,,122.47,,215.46,,519.36,2006-02-27,SBD
1,M,Wraps,Amateur Teen 16-17,90,89.72,Ben Fonzo,179.17,,129.27,,226.8,,535.24,2006-01-17,SBD
1,M,Wraps,Amateur Teen 18-19,67.5,64.32,Victor Su,136.08,,102.06,,170.1,,408.23,2004-01-23,SBD
1,M,Wraps,Amateur Teen 18-19,75,74.39,Connor Jones,226.8,247.21,124.74,,251.74,,603.28,2004-07-11,SBD
1,M,Wraps,Amateur Teen 18-19,90,83.96,Anthony Cuffaro,165.56,,136.08,,174.63,,476.27,2004-06-30,SBD
1,M,Wraps,Amateur Juniors 20-23,67.5,67.11,Zachary Caudill,142.88,,113.4,,167.83,,424.11,2000-12-13,SBD
1,M,Wraps,Amateur Juniors 20-23,82.5,81.51,Dylan Berezin,213.19,,129.27,,226.8,,569.26,2001-12-06,SBD
2,M,Wraps,Amateur Juniors 20-23,82.5,80.99,Dakota Parson,172.37,,102.06,,204.12,,478.54,1999-03-04,SBD
1,M,Wraps,Amateur Juniors 20-23,90,89.92,Sean McCormick,170.1,,99.79,,199.58,,469.47,1999-12-14,SBD
1,M,Wraps,Amateur Juniors 20-23,100,97.16,Timothy Shawley,195.04,,117.93,,215.46,,528.44,2001-06-18,SBD
1,M,Wraps,Amateur Open,67.5,66.72,Timothy Romm,201.85,,151.95,,206.38,,560.19,1989-04-19,SBD
1,M,Wraps,Amateur Open,75,71.94,Aaron Diffenderfer,136.08,,90.72,,158.76,,385.55,1994-02-23,SBD
1,M,Wraps,Amateur Open,82.5,81.47,Ryan Todd,197.31,,138.35,,251.74,265.35,587.4,2002-01-19,SBD
2,M,Wraps,Amateur Open,82.5,80.92,Nicholas Loan,210.92,,136.08,,197.31,,544.31,2000-07-26,SBD
1,M,Wraps,Amateur Open,100,99.11,Matthew Leise,213.19,,154.22,,213.19,,580.6,1995-06-04,SBD
2,M,Wraps,Amateur Open,100,95.21,Nicolas Cicero,154.22,,138.35,,199.58,,492.15,1990-11-26,SBD
1,M,Wraps,Amateur Open,110,100.52,Richard Spellman,188.24,,124.74,,197.31,,510.29,1998-07-16,SBD
1,M,Wraps,Amateur Submasters 33-39,100,98.02,Robert Pasternacki,219.99,,176.9,,244.94,,641.83,1988-01-23,SBD
1,M,Wraps,Amateur Submasters 33-39,140,138.44,Matt Taylor,260.82,272.16,192.78,,272.16,,725.75,1984-10-09,SBD
1,M,Wraps,Amateur Masters 40-44,125,118.43,Adam Stakem,213.19,,161.03,,240.4,,614.62,1982-03-15,SBD
1,M,Wraps,Amateur Masters 45-49,125,124.01,Jason Hubler,226.8,,149.69,,215.46,,591.94,1977-03-10,SBD
1,M,Wraps,Amateur Masters 50-54,82.5,80.78,Mark Cappolo,179.17,,117.93,,192.78,,489.88,1968-02-12,SBD
1,M,Wraps,Amateur Masters 50-54,90,87.5,Dave Bally,131.54,,102.06,,181.44,,415.04,1969-01-05,SBD
1,M,Wraps,Amateur Masters 55-59,100,99.61,William Muse,133.81,,86.18,,151.95,,371.95,1963-03-14,SBD
1,M,Wraps,Amateur Masters 65-69,82.5,79.92,Greg Fanelli,104.33,106.59,88.45,,190.51,,383.29,1956-05-22,SBD
1,M,Wraps,Amateur Masters 70-74,60,58.58,Tom Davis #6,120.2,,66.9,68.04,129.27,,316.38,1949-11-20,SBD
1,M,Unlimited,Amateur Juniors 20-23,90,86.73,Jordan Evans #7,265.35,,226.8,,256.28,,748.43,2000-09-06,SBD
1,M,Unlimited,Amateur Open,82.5,81.24,Derek Tare,165.56,,115.67,,208.65,,489.88,1998-11-23,SBD
1,M,Unlimited,Amateur Open,110,105.37,Michael Ferguson #1,272.16,,288.03,,260.82,,821,1986-11-19,SBD
2,M,Unlimited,Amateur Open,110,108.27,Micah Mattozzi,340.19,,210.92,,265.35,,816.47,1995-11-20,SBD
1,M,Unlimited,Amateur Open,140+,142.07,Ryan Bricker,376.48,,294.84,,256.28,,927.6,1992-12-11,SBD
2,M,Unlimited,Amateur Open,140+,145.26,Aaron Schulenburg,328.85,,274.42,,247.21,,850.49,1980-09-12,SBD
1,M,Unlimited,Amateur Masters 40-44,140+,145.26,Aaron Schulenburg,328.85,,274.42,,247.21,,850.49,1980-09-12,SBD
1,M,Unlimited,Amateur Masters 70-74,60,58.58,Tom Davis #6,120.2,,66.9,68.04,129.27,,316.38,1949-11-20,SBD
1,M,Unlimited,Amateur Masters 75-79,100,98.61,William Bracey,154.22,,102.06,,165.56,,421.84,1945-03-23,SBD
1,M,Wraps,Pro Open,82.5,82.21,Kenton Kramer,242.67,,154.22,,272.16,,669.05,1989-03-06,SBD
1,M,Wraps,Pro Open,82.5,80.22,Jared Gorczynski,229.06,,163.29,,254.01,,646.37,1984-03-20,SBD
1,M,Wraps,Pro Open,90,89.63,Juan Martinez,288.03,,206.38,,251.74,,746.16,1991-12-02,SBD
1,M,Wraps,Pro Submasters 33-39,82.5,80.22,Jared Gorczynski,229.06,,163.29,,254.01,,646.37,1984-03-20,SBD
1,M,Wraps,Pro Masters 40-44,82.5,81.94,Robert Brewer,197.31,,122.47,,238.14,,557.92,1982-09-08,SBD
1,M,Wraps,Pro Masters 45-49,140,129.41,Joe Sauble,328.85,,199.58,,294.84,,823.27,1975-09-18,SBD
1,M,Wraps,Pro Masters 60-64,125,111.86,Paul Diliberto,254.01,,190.51,,240.4,,684.92,1961-07-31,SBD
1,M,Wraps,Pro Masters 70-74,60,58.58,Tom Davis #6,120.2,,66.9,68.04,129.27,,316.38,1949-11-20,SBD
1,M,Unlimited,Pro Juniors 20-23,90,89.58,Mason Cooper,317.51,,265.35,,249.48,,832.34,1998-12-21,SBD
1,M,Unlimited,Pro Juniors 20-23,110,104.87,Bryan Manning,308.44,,249.48,,272.16,,830.07,1999-08-18,SBD
1,M,Unlimited,Pro Open,90,89.92,John Maimone,335.66,,285.76,,215.46,,836.88,1994-11-01,SBD
1,M,Unlimited,Pro Open,125,117.71,Alexander Punchello,419.57,,351.53,,274.42,,1045.53,1998-03-10,SBD
1,M,Unlimited,Pro Masters 45-49,125,124.01,Jeff Shellenberger,317.51,,272.16,,265.35,,855.02,1975-07-31,SBD
1,M,Unlimited,Pro Masters 50-54,125,119.57,Steve Diel,381.02,,390.09,,285.76,,1056.87,1972-01-30,SBD
1,M,Unlimited,Pro Masters 55-59,90,89.06,Dean Moore,294.84,,192.78,,174.63,,662.24,1967-05-10,SBD
1,M,Unlimited,Pro Masters 70-74,60,58.58,Tom Davis #6,120.2,,66.9,68.04,129.27,,316.38,1949-11-20,SBD
1,M,Raw,Amateur Masters 55-59,125,120.11,Michael Bell,,,174.63,,,,174.63,1965-12-10,B
1,M,Raw,Amateur Masters 60-64,82.5,79.02,Bob Abel,,,106.59,,,,106.59,1958-09-30,B
1,M,Raw,Amateur Masters 65-69,125,121.88,Corey Stein,,,124.74,,,,124.74,1954-09-11,B
1,M,Unlimited,Amateur Masters 60-64,100,99.56,Mike Cantrell,,,226.8,233.6,,,226.8,1958-10-14,B
1,M,Unlimited,Amateur Masters 60-64,125,121.15,Bart Shuman,,,254.01,,,,254.01,1962-01-20,B
1,M,Unlimited,Amateur Masters 65-69,82.5,80.15,William Adams #6,,,142.88,147.42,,,142.88,1956-01-07,B
1,M,Raw,Pro Juniors 20-23,90,88.63,Antonio Rivera #1,,,233.6,,,,233.6,1999-12-20,B
1,M,Raw,Pro Open,90,88.63,Antonio Rivera #1,,,233.6,,,,233.6,1999-12-20,B
1,M,Raw,Pro Open,140+,141.7,Chris DiSalvo,,,260.82,,,,260.82,1984-07-05,B
1,M,Raw,Pro Submasters 33-39,140+,141.7,Chris DiSalvo,,,260.82,,,,260.82,1984-07-05,B
1,M,Raw,Pro Masters 65-69,82.5,80.6,Tom Proya,,,161.03,,,,161.03,1955-05-28,B
1,M,Raw,Pro Police,140+,141.7,Chris DiSalvo,,,260.82,,,,260.82,1984-07-05,B
1,M,Unlimited,Pro Open,90,87.45,Nicholas Abbondola,,,210.92,,,,210.92,2000-01-29,B
1,M,Unlimited,Pro Masters 55-59,82.5,80.33,Craig Wargo,,,251.74,,,,251.74,1964-07-19,B
1,M,Raw,Amateur Teen 13-15,60,57.29,Eric Orpin,,,68.04,,113.4,,181.44,2008-03-07,BD
1,M,Raw,Amateur Masters 60-64,90,88.09,Kevin Wilk,,,106.59,,138.35,,244.94,1959-06-03,BD
1,M,Raw,Amateur Teen 16-17,100,99.29,Noah Himes,,,,,192.78,,192.78,2006-11-18,D
1,M,Raw,Amateur Teen 16-17,110,107.59,Weston Wattenbaugh,,,,,240.4,249.48,240.4,2006-06-08,D
1,M,Raw,Amateur Masters 65-69,90,89.18,Roy Apseloff,,,,,231.33,,231.33,1957-09-22,D
1,M,Unlimited,Pro Masters 55-59,90,89.92,Mark VanAlstyne,308.44,,,,,,308.44,1967-05-12,S
1,M,Raw,Amateur Juniors 20-23,110,102.92,Justin Checchia,181.44,,,,217.72,,399.16,1998-11-26,SD
