Name,Country,Event,Equipment,Age,Team,Sex,BirthDate,Division,BodyweightKg,WeightClassKg,Squat1Kg,Squat2Kg,Squat3Kg,Squat4Kg,Best3SquatKg,Bench1Kg,Bench2Kg,Bench3Kg,Bench4Kg,Best3BenchKg,Deadlift1Kg,Deadlift2Kg,Deadlift3Kg,Deadlift4Kg,Best3DeadliftKg,TotalKg,Place
Mariel Bertona,Argentina,SBD,Wraps,42,Dimaro,F,,F1,56,56,130,140,145,,145,75,80,-83,,80,135,142.5,-150,,142.5,367.5,1
Natalia Perez,Argentina,SBD,Wraps,21,Cef N°1,F,,FJ,58.4,60,85,-92.5,92.5,,92.5,42.5,-45,-45,,42.5,100,110,-125,,110,245,2
Fiamma Costa,Argentina,SBD,Wraps,23,CELP,F,,FJ,59.7,60,120,130,-140,,130,57.5,62.5,65,,65,125,135,145,150,145,340,1
Valeria Cristaldo,Argentina,SBD,Wraps,24,Cef N° 1,F,,FO,59,60,110,125,-140,,125,-50,55,-57.5,,55,110,125,130,,130,310,2
Laura Aylén Castrilli,Argentina,SBD,Wraps,17,CASTRILLI POWERLIFTING,F,,FT2,57.7,60,-60,60,75,,75,30,-40,-40,,30,70,80,90,,90,195,1
Lucila Rabasa,Argentina,SBD,Wraps,27,Dimaro,F,,FO,58,60,140,152.5,-157.5,,152.5,85,90,-92.5,,90,140,150,-157.5,,150,392.5,1
María Izetta,Argentina,SBD,Wraps,36,ATENAS,F,,FO,60,60,105,115,-125,,115,45,50,55,,55,120,127.5,137.5,,137.5,307.5,3
María Izetta,Argentina,SBD,Wraps,36,ATENAS,F,,FSM,60,60,105,115,-125,,115,45,50,55,,55,120,127.5,137.5,,137.5,307.5,3
María De Las Nieves Punalef,Argentina,SBD,Wraps,27,Genesis,F,,FO,65,67.5,80,85,115,,115,-40,40,45,,45,100,120,-125,,120,280,2
Aida Agüero,Argentina,SBD,Wraps,52,Dimaro,F,,FO,67,67.5,170,185,-195,,185,125,-132.5,-132.5,,125,175,-185,-185,,175,485,1
Adriana Plaza,Argentina,SBD,Wraps,22,CEF Nº 1,F,,FJ,72.5,75,70,80,90,,90,40,50,-55,,50,90,105,120,,120,260,1
Melina Andrea Silva,Argentina,SBD,Wraps,28,Aziz Olum,F,,FO,69.7,75,125,135,140,,140,70,75,-80,,75,125,135,140,,140,355,2
Estela Peña,Argentina,SBD,Wraps,24,FENIX GYM,F,,FO,74,75,190,-210,-220,,190,75,85,95,,95,180,190,-200,,190,475,1
Leticia Bertotto,Argentina,SBD,Wraps,42,xtrem gym,F,,F1,74.5,75,110,115,120,,120,50,55,60,,60,140,150,-155,,150,330,1
Micaela Symouang,Argentina,SBD,Wraps,25,xtrem gym,F,,FO,78,82.5,120,125,130,,130,40,45,50,,50,125,130,135,,135,315,1
Rosa Floriano,Argentina,SBD,Wraps,41,Cef N° 1,F,,F1,78.3,82.5,130,140,150,,150,100,110,115,,115,140,160,170,,170,435,1
Karyna Carosini,Argentina,SBD,Wraps,34,CEF Nº 1,F,,FO,88.7,90,140,160,-175,,160,60,70,-82.5,,70,110,125,135,,135,365,1
Karyna Carosini,Argentina,SBD,Wraps,34,CEF Nº 1,F,,FSM,88.7,90,140,160,-175,,160,60,70,-82.5,,70,110,125,135,,135,365,1
Stella Pinto,Argentina,SBD,Wraps,30,CASTRILLI POWERLIFTING,F,,FO,88.9,90,120,140,-160,,140,60,-70,-70,,60,140,-155,-155,,140,340,2
Mariela Ortellado,Argentina,SBD,Wraps,29,CASTRILLI POWERLIFTING,F,,FO,103.3,90+,120,-145,-145,,120,70,80,85,,85,140,165,-175,,165,370,1
Marina Izetta,Argentina,SBD,Wraps,33,ATENAS,F,,FO,116,90+,110,-120,-130,,110,55,65,-72.5,,65,160,170,182.5,,182.5,357.5,2
Marina Izetta,Argentina,SBD,Wraps,33,ATENAS,F,,FSM,116,90+,110,-120,-130,,110,55,65,-72.5,,65,160,170,182.5,,182.5,357.5,2
Samuel Gerez,Argentina,SBD,Wraps,16,vitaltrainer,M,,MT2,58.8,60,80,100,-112.5,,100,50,60,67.5,,67.5,110,120,125,,125,292.5,1
Matías Buffarini,Argentina,SBD,Wraps,23,CASTRILLI POWERLIFTING,M,,MJ,58.9,60,100,120,-140,,120,70,80,-90,,80,120,-140,140,,140,340,1
Emanuel Rodriguez,Argentina,SBD,Wraps,18,Master Gym,M,,MT3,68.7,75,-160,-160,-160,,,,,,,,,,,,,,DQ
Rodrigo Fernandez,Argentina,SBD,Wraps,18,Master Gym,M,,MT3,68.4,75,-150,-150,-150,,,,,,,,,,,,,,DQ
Pablo Cornejo,Argentina,SBD,Wraps,25,xtrem gym,M,,MO,67,67.5,150,160,170,,170,105,115,-125,,115,160,180,190,,190,475,2
Guillermo Rodriguez,Argentina,SBD,Wraps,37,El Solar,M,,MO,67,67.5,185,210,-230,,210,120,132.5,145,,145,185,-200,200,,200,555,1
Guillermo Rodriguez,Argentina,SBD,Wraps,37,El Solar,M,,MSM,67,67.5,185,210,-230,,210,120,132.5,145,,145,185,-200,200,,200,555,1
Lautaro Albornoz,Argentina,SBD,Wraps,17,unisex,M,,MT2,72.5,75,-130,130,140,,140,80,-90,90,,90,150,-165,-165,,150,380,1
Kevin Penailillio,Argentina,SBD,Wraps,18,Master Gym,M,,MT3,71.3,75,-140,140,-160,,140,80,95,105,,105,157.5,165,-172.5,,165,410,2
Enzo Lechman,Argentina,SBD,Wraps,19,CRD(Ushuaia),M,,MT3,74.2,75,145,-155,-155,,145,85,95,100,,100,-165,170,175,-182.5,175,420,1
David D'Arpino,Argentina,SBD,Wraps,23,Cef N° 1,M,,MJ,74.7,75,190,200,-215,,200,-135,-135,-135,,,-220,-220,,,,,DQ
Ezequiel Fernandez Uguet,Argentina,SBD,Wraps,21,FENIX GYM,M,,MJ,74.8,75,135,145,-155,,145,85,95,-102.5,,95,160,170,180,,180,420,1
Martín San Felice,Argentina,SBD,Wraps,29,xtrem gym,M,,MO,71.9,75,130,-140,140,,140,110,115,120,,120,140,155,165,,165,425,3
Juan Sosa,Argentina,SBD,Wraps,33,xtrem gym,M,,MO,74.1,75,185,195,-202.5,,195,130,135,140,142.5,140,200,210,220,-225,220,555,1
Pablo Esquivel,Argentina,SBD,Wraps,36,DEF.DE GLEW,M,,MO,72.7,75,145,155,162.5,,162.5,100,-110,,,100,200,210,-220,,210,472.5,2
Juan Sosa,Argentina,SBD,Wraps,33,xtrem gym,M,,MSM,74.1,75,185,195,-202.5,,195,130,135,140,142.5,140,200,210,220,-225,220,555,1
Pablo Esquivel,Argentina,SBD,Wraps,36,DEF.DE GLEW,M,,MSM,72.7,75,145,155,162.5,,162.5,100,-110,,,100,200,210,-220,,210,472.5,2
Ariel Vera,Argentina,SBD,Wraps,30,CEF Nº 1,M,,MO,74.4,75,-150,-150,,,,,,,,,-160,-160,160,,160,,DQ
Jose Luis Ferrer,Argentina,SBD,Wraps,49,Dimaro,M,,M2,68.2,75,130,140,,,140,95,105,115,-120,115,140,155,-165,,155,410,1
Horacio Zoilo,Argentina,SBD,Wraps,72,Dimaro,M,,M7,77.2,82.5,100,120,135,,135,100,120,-130,,120,170,180,190,,190,445,1
Facundo Symouang,Argentina,SBD,Wraps,15,xtrem gym,M,,MT1,80.5,82.5,190,200,-210,,200,95,100,105,,105,180,190,-200,,190,495,1
Facundo Piermatei,Argentina,SBD,Wraps,17,xtrem gym,M,,MT2,77.1,82.5,140,150,-160,,150,85,-95,-95,,85,160,170,180,,180,415,1
José Torino,Argentina,SBD,Wraps,21,CASTRILLI POWERLIFTING,M,,MJ,81.6,82.5,200,220,-230,,220,125,-132.5,-132.5,,125,240,-250,-250,,240,585,2
Diego Stauro,Argentina,SBD,Wraps,21,El Solar,M,,MJ,82.4,82.5,245,257.5,265,270,265,115,125,132.5,,132.5,220,232.5,240,,240,637.5,1
Luis Díaz,Argentina,SBD,Wraps,33,CASTRILLI POWERLIFTING,M,,MO,79.4,82.5,-180,180,-200,,180,100,115,-125,,115,200,210,212.5,,212.5,507.5,3
Juan Ariel Luna,Argentina,SBD,Wraps,37,GUEMES,M,,MO,78.4,82.5,110,130,-160,,130,105,120,130,,130,150,180,210,,210,470,4
Marcos Velozo,Argentina,SBD,Wraps,37,Cef N° 1,M,,MO,78.2,82.5,235,250,-262.5,,250,160,170,-180,,170,240,255,265,,265,685,1
Juan Ariel Luna,Argentina,SBD,Wraps,37,GUEMES,M,,MSM,78.4,82.5,110,130,-160,,130,105,120,130,,130,150,180,210,,210,470,4
Marcos Velozo,Argentina,SBD,Wraps,37,Cef N° 1,M,,MSM,78.2,82.5,235,250,-262.5,,250,160,170,-180,,170,240,255,265,,265,685,1
Ezequiel Millet,Argentina,SBD,Wraps,28,FENIX GYM,M,,MO,82.5,82.5,185,-195,195,,195,145,155,-160,,155,200,210,-225,,210,560,2
Eduardo Cespedes,Argentina,SBD,Wraps,44,GUEMES,M,,M1,82.2,82.5,120,130,140,,140,100,135,-137.5,,135,140,170,185,,185,460,1
Emiliano Acosta,Argentina,SBD,Wraps,67,CEF Nº 1,M,,M6,77,82.5,140,150,160,,160,110,115,120,,120,-160,160,165,,165,445,1
Lucas Liljestrhom,Argentina,SBD,Wraps,23,CELP,M,,MJ,82.9,90,60,,,,60,130,140,150,,150,100,,,,100,310,1
Marcos Javier Punalef,Argentina,SBD,Wraps,31,Leon Fitnes,M,,MO,87,90,-160,160,-220,,160,100,120,135,,135,140,170,200,,200,495,4
Marcos Cabezas,Argentina,SBD,Wraps,35,CRD(Ushuaia),M,,MO,88.8,90,-240,-250,250,,250,140,150,160,,160,200,220,-240,,220,630,1
Sergio Salas,Argentina,SBD,Wraps,34,ATENAS,M,,MO,90.8,100,175,-185,185,,185,125,132.5,-135,,132.5,190,-210,210,,210,527.5,3
Luis Fonsalia,Argentina,SBD,Wraps,39,DEF.DE GLEW,M,,MO,90,90,170,180,-195,,180,120,132.5,137.5,,137.5,215,225,-240,,225,542.5,2
Marcos Cabezas,Argentina,SBD,Wraps,35,CRD(Ushuaia),M,,MSM,88.8,90,-240,-250,250,,250,140,150,160,,160,200,220,-240,,220,630,1
Sergio Salas,Argentina,SBD,Wraps,34,ATENAS,M,,MSM,90.8,100,175,-185,185,,185,125,132.5,-135,,132.5,190,-210,210,,210,527.5,3
Luis Fonsalia,Argentina,SBD,Wraps,39,DEF.DE GLEW,M,,MSM,90,90,170,180,-195,,180,120,132.5,137.5,,137.5,215,225,-240,,225,542.5,2
Daniel Sánchez,Argentina,SBD,Wraps,40,CELP,M,,M1,88.4,90,230,260,,,260,140,-150,150,,150,200,225,,,225,635,1
Ismael Luna,Argentina,SBD,Wraps,43,ATENAS,M,,M1,86.7,90,222.5,232.5,-245,,232.5,150,160,167.5,,167.5,200,225,-235,,225,625,2
Fabio Pardo,Argentina,SBD,Wraps,45,Dimaro,M,,M2,90.4,100,210,222.5,-230,,222.5,100,107.5,112.5,,112.5,210,225,230,,230,565,1
Hernan Bedacarratz,Argentina,SBD,Wraps,59,Dimaro,M,,M4,89.9,90,140,160,180,,180,100,112.5,115,,115,160,180,-200,,180,475,1
Lucas Quitanas,Argentina,SBD,Wraps,19,GUEMES,M,,MT3,97.3,100,150,-175,175,,175,125,135,-140,,135,170,185,-200,,185,495,1
Lucas Gigena,Argentina,SBD,Wraps,21,vitaltrainer,M,,MJ,97.7,100,150,-170,-170,,150,-90,-90,-90,,,,,,,,,DQ
Martín Muñoz #1,Argentina,SBD,Wraps,23,FENIX GYM,M,,MJ,97.4,100,240,260,280,-300,280,160,170,-182.5,,170,210,220,240,,240,690,1
Victor Mañande,Argentina,SBD,Wraps,28,Neo Sport,M,,MO,92.7,100,190,200,-212.5,,200,-135,135,,,135,195,-220,,,195,530,3
Marcelo Gatica,Argentina,SBD,Wraps,32,xtrem gym,M,,MO,99.8,100,235,245,-260,,245,140,150,160,167.5,160,220,235,-250,,235,640,2
Alberto Lamas,Spain,SBD,Wraps,39,HUMAHUACA,M,,MO,96.4,100,140,150,160,,160,100,115,-120,,115,170,190,200,,200,475,1
Jose Albornoz,Argentina,SBD,Wraps,36,xtrem gym,M,,MO,98.5,100,275,-285,-285,,275,160,167.5,,,167.5,295,-305,-305,,295,737.5,1
Alberto Lamas,Spain,SBD,Wraps,39,HUMAHUACA,M,,MSM,96.4,100,140,150,160,,160,100,115,-120,,115,170,190,200,,200,475,1
Jose Albornoz,Argentina,SBD,Wraps,36,xtrem gym,M,,MSM,98.5,100,275,-285,-285,,275,160,167.5,,,167.5,295,-305,-305,,295,737.5,1
Rodrigo Javier Sanchez,Argentina,D,Raw,43,Vertice 7,M,,M1,96.7,100,,,,,,,,,,,240,250,260,,260,260,1
Walter Diaz #1,Argentina,SBD,Wraps,41,Master Gym,M,,M1,95.6,100,170,190,-200,,190,140,150,-160,,150,220,230,-235,,230,570,2
Gustavo Miño,Argentina,SBD,Wraps,43,Dimaro,M,,M1,93.9,100,210,225,230,,230,145,-152.5,-152.5,,145,210,225,-235,,225,600,1
Sergio Gayoso,Argentina,SBD,Wraps,53,CELP,M,,M3,99.3,100,180,-202.5,210,,210,130,140,-145,,140,200,220,230,,230,580,1
Gustavo Castro,Argentina,SBD,Wraps,18,Strong Gym,M,,MT3,109.9,110,170,-200,200,,200,130,140,150,,150,180,200,,,200,550,1
Alfredo Martín Rojas,Argentina,SBD,Wraps,28,Mega Gym,M,,MO,109.8,110,270,280,285,,285,140,150,155,,155,260,290,307.5,,307.5,747.5,1
Pablo López,Argentina,SBD,Wraps,30,CASTRILLI POWERLIFTING,M,,MO,102,110,200,-220,-230,,200,140,162.5,170,-180,170,180,-200,200,,200,570,2
Emilio Mansilla,Argentina,SBD,Wraps,30,Aquiles,M,,MO,104.7,110,285,295,,,295,150,160,,,160,-290,-290,-290,,,,DQ
Martín Mansilla,Argentina,SBD,Wraps,36,POWER GYM,M,,MO,105.4,110,-230,230,,,230,110,,,,110,150,,,,150,490,3
Martín Mansilla,Argentina,SBD,Wraps,36,POWER GYM,M,,MSM,105.4,110,-230,230,,,230,110,,,,110,150,,,,150,490,3
Walter Morales,Argentina,SBD,Wraps,42,CELP,M,,M1,100.3,110,230,250,-257.5,,250,155,167.5,-175,,167.5,240,-262.5,,,240,657.5,1
Victor Quispe,Argentina,SBD,Wraps,43,Dimaro,M,,M1,104.5,110,150,170,190,,190,130,140,145,,145,190,200,,,200,535,2
Omar Cordoba,Argentina,SBD,Wraps,48,Cef N° 1,M,,M2,106.9,110,180,190,200,,200,140,145,-150,,145,200,215,-225,,215,560,2
Juan Domingo Pelozo,Argentina,SBD,Wraps,,,M,,MO,,110,100,120,130,,130,80,85,90,,90,120,135,-145,,135,355,1
Walter Britez,Argentina,SBD,Wraps,45,Cef N° 1,M,,M2,107.7,110,210,230,240,,240,130,140,,,140,237.5,245,-260,,245,625,1
Leonardo Rivarola,Argentina,SBD,Wraps,30,Mega Gym,M,,MO,121,125,260,-310,-310,,260,160,-190,,,160,-270,270,,,270,690,1
Luciano Delorenzi,Argentina,SBD,Wraps,23,Dimaro,M,,MJ,136,140,235,270,280,,280,135,150,152.5,,152.5,225,255,-265,,255,687.5,1
Pablo Lucero,Argentina,SBD,Wraps,29,unisex,M,,MO,134.7,140,-225,225,-230,,225,120,-125,,,120,210,215,220,,220,565,2
Mario Alfredo Alonso,Argentina,SBD,Wraps,39,Master Gym,M,,MO,137,140,270,280,-315,,280,190,210,,,210,-270,270,,,270,760,1
Mario Alfredo Alonso,Argentina,SBD,Wraps,39,Master Gym,M,,MSM,137,140,270,280,-315,,280,190,210,,,210,-270,270,,,270,760,1
Francisco Mansilla,Argentina,SBD,Wraps,35,Neo Sport,M,,MO,140.1,140+,-265,265,285,,285,175,187.5,197.5,,197.5,230,252.5,265,,265,747.5,1
Daniela Silva,Argentina,D,Raw,44,Vertice 7,F,,F1,51.2,52,,,,,,,,,,,70,80,90,,90,90,1
Mariel Bertona,Argentina,D,Raw,42,Dimaro,F,,F1,56,56,,,,,,,,,,,135,142.5,-150,,142.5,142.5,1
Laura Aylén Castrilli,Argentina,D,Raw,17,CASTRILLI POWERLIFTING,F,,FT2,57.7,60,,,,,,,,,,,70,80,90,,90,90,1
Fiamma Costa,Argentina,D,Raw,23,CELP,F,,FJ,59.7,60,,,,,,,,,,,125,135,145,150,145,145,1
Lucila Rabasa,Argentina,D,Raw,27,Dimaro,F,,FO,58,60,,,,,,,,,,,140,150,-157.5,,150,150,1
Mirta Gimenez,Argentina,D,Raw,52,CASTRILLI POWERLIFTING,F,,F3,65.9,67.5,,,,,,,,,,,70,75,80,,80,80,1
Melina Andrea Silva,Argentina,D,Raw,28,Aziz Olum,F,,FO,69.7,75,,,,,,,,,,,125,135,140,,140,140,1
Marina Izetta,Argentina,D,Raw,33,ATENAS,F,,FO,116,90+,,,,,,,,,,,160,170,182.5,,182.5,182.5,1
Marina Izetta,Argentina,D,Raw,33,ATENAS,F,,FSM,116,90+,,,,,,,,,,,160,170,182.5,,182.5,182.5,1
Aida Agüero,Argentina,D,Raw,52,Dimaro,F,,FO,67,67.5,,,,,,,,,,,175,-185,-185,,175,175,1
Leticia Bertotto,Argentina,D,Raw,42,Xtrem Gym,F,,F1,74.5,75,,,,,,,,,,,140,150,-155,,150,150,1
Florencia Mardones,Argentina,D,Raw,19,Aquiles,F,,FT3,79,82.5,,,,,,,,,,,115,-125,-125,,115,115,1
Rosa Floriano,Argentina,D,Raw,41,Cef N° 1,F,,F1,78.3,82.5,,,,,,,,,,,140,160,170,,170,170,1
Stella Pinto,Argentina,D,Raw,30,CASTRILLI POWERLIFTING,F,,FO,88.9,90,,,,,,,,,,,140,-155,-155,,140,140,1
Mariela Ortellado,Argentina,D,Raw,28,CASTRILLI POWERLIFTING,F,,FO,103.3,90+,,,,,,,,,,,140,165,-175,,165,165,1
María De Las Nieves Punalef,Argentina,D,Raw,27,Genesis,F,,FO,65,67.5,,,,,,,,,,,100,120,-125,,120,120,2
Rodrigo Fernandez,Argentina,D,Raw,18,Master Gym,M,,MT3,68.4,75,,,,,,,,,,,150,170,185,,185,185,1
Pablo Cornejo,Argentina,D,Raw,25,xtrem gym,M,,MO,67,67.5,,,,,,,,,,,160,180,190,,190,190,1
Marcelo Lobo,Argentina,D,Raw,45,Dimaro,M,,M2,80.8,82.5,,,,,,,,,,,200,215,225,,225,225,1
Enzo Lechman,Argentina,D,Raw,19,CRD(Ushuaia),M,,MT3,74.2,75,,,,,,,,,,,-165,170,175,-182.5,175,175,1
Anyelo Correa,Argentina,D,Raw,22,Vital Trainer,M,,MJ,74.4,75,,,,,,,,,,,160,-180,-190,,160,160,1
Pablo Esquivel,Argentina,D,Raw,36,DEF.DE GLEW,M,,MO,72.7,75,,,,,,,,,,,200,210,-220,,210,210,1
Pablo Esquivel,Argentina,D,Raw,36,DEF.DE GLEW,M,,MSM,72.7,75,,,,,,,,,,,200,210,-220,,210,210,1
Jose Luis Ferrer,Argentina,D,Raw,49,Dimaro,M,,M2,68.2,75,,,,,,,,,,,140,155,-165,,155,155,1
Horacio Zoilo,Argentina,D,Raw,72,Dimaro,M,,M7,77.2,82.5,,,,,,,,,,,170,180,190,,190,190,1
Lucas Liljestrhom,Argentina,D,Raw,23,CELP,M,,MJ,82.9,90,,,,,,,,,,,100,,,,100,100,1
Diego Stauro,Argentina,D,Raw,21,El Solar,M,,MJ,,82.5,,,,,,,,,,,200,210,212.5,,212.5,212.5,2
José Torino,Argentina,D,Raw,21,CASTRILLI POWERLIFTING,M,,MJ,,82.5,,,,,,,,,,,240,,,,240,240,1
Jorge Curual,Argentina,D,Raw,33,Vertice 7,M,,MO,76.8,82.5,,,,,,,,,,,115,135,155,,155,155,1
Marcos Cabezas,Argentina,D,Raw,35,CRD(Ushuaia),M,,MO,,90,,,,,,,,,,,200,220,,,220,220,1
Sergio Salas,Argentina,D,Raw,34,ATENAS,M,,MO,,90,,,,,,,,,,,190,210,,,210,210,2
Marcos Cabezas,Argentina,D,Raw,35,CRD(Ushuaia),M,,MSM,,90,,,,,,,,,,,200,220,,,220,220,1
Sergio Salas,Argentina,D,Raw,34,ATENAS,M,,MSM,,90,,,,,,,,,,,190,210,,,210,210,2
Emilio Mansilla,Argentina,D,Raw,30,Aquiles,M,,MO,,100,,,,,,,,,,,,,,,,,NS
Walter Diaz #1,Argentina,D,Raw,41,Master Gym,M,,M1,,100,,,,,,,,,,,220,230,,,230,230,2
Walter Morales,Argentina,D,Raw,42,CELP,M,,M1,,100,,,,,,,,,,,240,,,,240,240,1
Sergio Gayoso,Argentina,D,Raw,53,CELP,M,,M3,,100,,,,,,,,,,,200,220,230,,230,230,1
Jose Albornoz,Argentina,D,Raw,36,xtrem gym,M,,MO,,100,,,,,,,,,,,295,,,,295,295,1
Jose Albornoz,Argentina,D,Raw,36,xtrem gym,M,,MSM,,100,,,,,,,,,,,295,,,,295,295,1
Alfredo Martín Rojas,Argentina,D,Raw,28,Mega Gym,M,,MO,,110,,,,,,,,,,,260,290,307,,307,307,1
Salvador Accari,Argentina,D,Raw,27,Dimaro,M,,MO,117.7,125,,,,,,,,,,,230,250,-270,,250,250,1
Luciano Delorenzi,Argentina,D,Raw,23,Dimaro,M,,MJ,136,140,,,,,,,,,,,225,255,-265,,255,255,1
Emanuel Monte De Oca,Argentina,D,Raw,28,xtrem gym,M,,MO,134.2,140,,,,,,,,,,,280,292.5,,,292.5,292.5,1
Jorge Alvarez,Argentina,D,Raw,54,Magnus Sur,M,,M3,161,140+,,,,,,,,,,,125,155,,,155,155,1
Fabio Pardo,Argentina,D,Raw,45,Dimaro,M,,M2,90.4,100,,,,,,,,,,,210,225,230,,230,230,1
Lucila Rabasa,Argentina,SBD,Multi-ply,27,Dimaro,F,,FO,58,60,150,165,-175,,165,90,97.5,105,,105,140,150,155,,155,425,1
Matías Carrizo,Argentina,SBD,Multi-ply,17,DEF.DE GLEW,M,,MT2,67.4,67.5,-120,-130,-130,,,,,,,,120,140,-160,,140,,DQ
Mauricio Hernandez,Argentina,SBD,Multi-ply,26,Rosell,M,,MO,67.5,67.5,170,180,200,,200,120,130,137.5,,137.5,180,200,-205,,200,537.5,2
Guillermo Rodriguez,Argentina,SBD,Multi-ply,37,El Solar,M,,MO,67,67.5,255,-270,280,,280,180,200,-210,,200,200,-220,-225,,200,680,1
Guillermo Rodriguez,Argentina,SBD,Multi-ply,37,El Solar,M,,MSM,67,67.5,255,-270,280,,280,180,200,-210,,200,200,-220,-225,,200,680,1
Cristian Mansilla,Argentina,SBD,Multi-ply,36,CEC,M,,MO,73.5,75,240,-260,260,,260,170,-180,180,190,180,-210,-210,210,,210,650,1
Julio Cesar García,Argentina,SBD,Multi-ply,30,Rosell,M,,MO,74.8,75,220,-230,-235,,220,120,132.5,-137.5,,132.5,220,230,-252.5,,230,582.5,3
Sandro Zayas,Argentina,SBD,Multi-ply,39,DEF.DE GLEW,M,,MO,74.5,75,190,210,220,,220,125,132.5,137.5,,137.5,220,235,245,,245,602.5,2
Sandro Zayas,Argentina,SBD,Multi-ply,39,DEF.DE GLEW,M,,MSM,74.5,75,190,210,220,,220,125,132.5,137.5,,137.5,220,235,245,,245,602.5,2
Enrique Villanueva,Argentina,SBD,Multi-ply,31,Rosell,M,,MO,81.8,82.5,100,,,,100,100,,,,100,100,,,,100,300,2
Jesus Balbiano,Argentina,SBD,Multi-ply,29,POWER GYM,M,,MO,80.5,82.5,160,-180,-180,,160,120,135,-140,,135,160,180,,,180,475,1
David D'Arpino,Argentina,SBD,Multi-ply,23,Cef N° 1,M,,MJ,75.9,82.5,150,155,,,155,90,,,,90,160,225,-241,,225,470,1
Oscar Figueredo,Argentina,SBD,Multi-ply,42,POWER GYM,M,,M1,82.4,82.5,265,-280,280,,280,165,177.5,-200,,177.5,175,200,215,225,215,672.5,1
Jose Gabriel Cisnero,Argentina,SBD,Multi-ply,41,Aquiles,M,,M1,82.1,82.5,150,160,,,160,125,135,-145,,135,160,175,-187.5,,175,470,2
Juan Pereyra #1,Argentina,SBD,Multi-ply,67,POWER GYM,M,,M6,78.7,82.5,180.5,-200,-200,,180.5,110,120.5,-130,,120.5,142.5,-152.5,-152.5,,142.5,443,1
Oscar Espinello,Argentina,SBD,Multi-ply,75,Dimaro,M,,M8,89.3,90,180,195,205,,205,90,100,105,,105,220,235,245,,245,555,1
Jorge Alvarez,Argentina,SBD,Multi-ply,54,Magnus Sur,M,,M3,161,140+,125,150,175,,175,95,105,,,105,125,162.5,170,,170,450,1
Sergio Devich,Argentina,SBD,Multi-ply,64,Dimaro,M,,M5,109.7,110,160,-180,180,,180,120,-130,130,,130,-160,-160,160,,160,470,1
Luis Bucek,Argentina,SBD,Multi-ply,27,CEF N°1,M,,MO,89.7,90,200,-220,,,200,180,190,-192.5,,190,200,217.5,222.5,,222.5,612.5,3
Alberto Caceres,Argentina,SBD,Multi-ply,28,Sindicato de Camioneros,M,,MO,88.3,90,260,272.5,277.5,,277.5,175,182.5,190,,190,220,235,245,,245,712.5,2
Daniel Sánchez,Argentina,SBD,Multi-ply,40,CELP,M,,MO,88.4,90,250,290,310,,310,140,-220,220,,220,220,250,-270,,250,780,1
Marcos Martinez,Argentina,SBD,Multi-ply,39,CRD(RG),M,,MO,98.6,100,375,392.5,400,,400,200,-215,220,,220,315,332.5,342.5,,342.5,962.5,1
Marcos Martinez,Argentina,SBD,Multi-ply,39,CRD(RG),M,,MSM,98.6,100,375,392.5,400,,400,200,-215,220,,220,315,332.5,342.5,,342.5,962.5,1
Juan Carlos Silveyra,Argentina,SBD,Multi-ply,43,Mega Gym,M,,M1,96,100,205,215,-220,,215,145,152.5,160,,160,205,215,-222.5,,215,590,2
Carlos Garelli,Argentina,SBD,Multi-ply,42,CRD(Ushuaia),M,,M1,98.6,100,230,242.5,247.5,,247.5,125,130,-135,,130,220,-230,230,,230,607.5,1
Victor Quispe,Argentina,SBD,Multi-ply,43,Dimaro,M,,M1,104.5,110,200,-230,240,,240,-160,160,170,,170,190,200,210,,210,620,2
Marcelo Escobedo,Argentina,SBD,Multi-ply,44,Azis Olum,M,,M1,107.7,110,190,210,220,,220,170,180,190,,190,200,215,220,,220,630,1
Emilio Mansilla,Argentina,SBD,Multi-ply,30,Aquiles,M,,MO,104.7,110,200,210,225,,225,120,130,,,130,220,250,,,250,605,2
Lucila Rabasa,Argentina,D,Multi-ply,27,Dimaro,F,1986-12-05,FO,58,60,,,,,,,,,,,140,150,155,,155,155,1
Guillermo Rodriguez,Argentina,D,Multi-ply,37,El Solar,M,1977-03-18,MO,67,67.5,,,,,,,,,,,200,,,,200,200,1
Cristian Mansilla,Argentina,D,Multi-ply,36,CEC,M,1978-03-26,MO,73.5,75,,,,,,,,,,,210,,,,210,210,2
Sandro Zayas,Argentina,D,Multi-ply,38,DEF.DE GLEW,M,1976-06-11,MO,74.5,75,,,,,,,,,,,220,235,245,,245,245,1
Guillermo Rodriguez,Argentina,D,Multi-ply,37,El Solar,M,1977-03-18,MSM,67,67.5,,,,,,,,,,,200,,,,200,200,1
Cristian Mansilla,Argentina,D,Multi-ply,36,CEC,M,1978-03-26,MSM,73.5,75,,,,,,,,,,,210,,,,210,210,2
Sandro Zayas,Argentina,D,Multi-ply,38,DEF.DE GLEW,M,1976-06-11,MSM,74.5,75,,,,,,,,,,,220,235,245,,245,245,1
Jesus Balbiano,Argentina,D,Multi-ply,29,POWER GYM,M,1984-07-25,MO,80.5,82.5,,,,,,,,,,,160,180,,,180,180,1
Jose Gabriel Cisnero,Argentina,D,Multi-ply,41,Aquiles,M,1973-01-16,M1,82.1,82.5,,,,,,,,,,,160,175,-187.5,,175,175,1
Alberto Caseres,Argentina,D,Multi-ply,28,El Solar,M,1986-04-13,MO,88.3,90,,,,,,,,,,,220,235,245,,245,245,1
Oscar Espinello,Argentina,D,Multi-ply,75,Dimaro,M,1939-06-16,M8,89.3,90,,,,,,,,,,,220,235,245,,245,245,1
Marcos Martinez,Argentina,D,Multi-ply,39,CRD(RG),M,1975-04-22,MO,98.6,100,,,,,,,,,,,315,332.5,342.5,,342.5,342.5,1
Marcos Martinez,Argentina,D,Multi-ply,39,CRD(RG),M,1975-04-22,MSM,98.6,100,,,,,,,,,,,315,332.5,342.5,,342.5,342.5,1
Carlos Garelli,Argentina,D,Multi-ply,42,CRD(Ushuaia),M,1971-09-24,M1,98.6,100,,,,,,,,,,,220,230,,,230,230,1
Sergio Gayoso,Argentina,D,Multi-ply,53,CELP,M,1961-04-17,M3,99.3,100,,,,,,,,,,,180,215,-235,,215,215,1
Emilio Mansilla,Argentina,D,Multi-ply,30,AQUILES,M,1984-01-22,MO,104.7,110,,,,,,,,,,,220,250,,,250,250,1
Walter Morales,Argentina,D,Multi-ply,42,CELP,M,1972-06-04,M1,100.3,110,,,,,,,,,,,75,,,,75,75,1
Emanuel Monte De Oca,Argentina,D,Multi-ply,28,xtrem gym,M,1985-10-06,MO,134.2,140,,,,,,,,,,,302.5,,,,302.5,302.5,1
